^C:\USERS\CRISTIAN\DESKTOP\UNITBV\CLOUD\HELLOMICROSERVICES\TEMA1 CLOUD\GENERATED\HELLOOPERATION.GRPC.PB.CC|C:\USERS\CRISTIAN\DESKTOP\UNITBV\CLOUD\HELLOMICROSERVICES\TEMA1 CLOUD\GENERATED\HELLOOPERATION.PB.CC|C:\USERS\CRISTIAN\DESKTOP\UNITBV\CLOUD\HELLOMICROSERVICES\TEMA1 CLOUD\GENERATED\NAMEREQUEST.GRPC.PB.CC|C:\USERS\CRISTIAN\DESKTOP\UNITBV\CLOUD\HELLOMICROSERVICES\TEMA1 CLOUD\GENERATED\NAMEREQUEST.PB.CC|C:\USERS\CRISTIAN\DESKTOP\UNITBV\CLOUD\HELLOMICROSERVICES\TEMA1 CLOUD\GENERATED\OPERATIONRESPONSE.GRPC.PB.CC|C:\USERS\CRISTIAN\DESKTOP\UNITBV\CLOUD\HELLOMICROSERVICES\TEMA1 CLOUD\GENERATED\OPERATIONRESPONSE.PB.CC
C:\USERS\CRISTIAN\DESKTOP\UNITBV\CLOUD\HELLOMICROSERVICES\TEMA1 CLOUD\EXAMPLEGRPC\DEBUG\GENERATED.PDB
C:\USERS\CRISTIAN\DESKTOP\UNITBV\CLOUD\HELLOMICROSERVICES\TEMA1 CLOUD\EXAMPLEGRPC\DEBUG\GENERATED.IDB
C:\USERS\CRISTIAN\DESKTOP\UNITBV\CLOUD\HELLOMICROSERVICES\TEMA1 CLOUD\EXAMPLEGRPC\DEBUG\OPERATIONRESPONSE.PB.OBJ
C:\USERS\CRISTIAN\DESKTOP\UNITBV\CLOUD\HELLOMICROSERVICES\TEMA1 CLOUD\EXAMPLEGRPC\DEBUG\OPERATIONRESPONSE.GRPC.PB.OBJ
C:\USERS\CRISTIAN\DESKTOP\UNITBV\CLOUD\HELLOMICROSERVICES\TEMA1 CLOUD\EXAMPLEGRPC\DEBUG\NAMEREQUEST.PB.OBJ
C:\USERS\CRISTIAN\DESKTOP\UNITBV\CLOUD\HELLOMICROSERVICES\TEMA1 CLOUD\EXAMPLEGRPC\DEBUG\NAMEREQUEST.GRPC.PB.OBJ
C:\USERS\CRISTIAN\DESKTOP\UNITBV\CLOUD\HELLOMICROSERVICES\TEMA1 CLOUD\EXAMPLEGRPC\DEBUG\HELLOOPERATION.PB.OBJ
C:\USERS\CRISTIAN\DESKTOP\UNITBV\CLOUD\HELLOMICROSERVICES\TEMA1 CLOUD\EXAMPLEGRPC\DEBUG\HELLOOPERATION.GRPC.PB.OBJ
^C:\USERS\CRISTIAN\DESKTOP\UNITBV\CLOUD\HELLOMICROSERVICES\TEMA1 CLOUD\GENERATED\HELLOOPERATION.GRPC.PB.CC
C:\USERS\CRISTIAN\DESKTOP\UNITBV\CLOUD\HELLOMICROSERVICES\TEMA1 CLOUD\EXAMPLEGRPC\DEBUG\GENERATED.PDB
^C:\USERS\CRISTIAN\DESKTOP\UNITBV\CLOUD\HELLOMICROSERVICES\TEMA1 CLOUD\GENERATED\HELLOOPERATION.PB.CC
C:\USERS\CRISTIAN\DESKTOP\UNITBV\CLOUD\HELLOMICROSERVICES\TEMA1 CLOUD\EXAMPLEGRPC\DEBUG\GENERATED.PDB
^C:\USERS\CRISTIAN\DESKTOP\UNITBV\CLOUD\HELLOMICROSERVICES\TEMA1 CLOUD\GENERATED\NAMEREQUEST.GRPC.PB.CC
C:\USERS\CRISTIAN\DESKTOP\UNITBV\CLOUD\HELLOMICROSERVICES\TEMA1 CLOUD\EXAMPLEGRPC\DEBUG\GENERATED.PDB
^C:\USERS\CRISTIAN\DESKTOP\UNITBV\CLOUD\HELLOMICROSERVICES\TEMA1 CLOUD\GENERATED\NAMEREQUEST.PB.CC
C:\USERS\CRISTIAN\DESKTOP\UNITBV\CLOUD\HELLOMICROSERVICES\TEMA1 CLOUD\EXAMPLEGRPC\DEBUG\GENERATED.PDB
^C:\USERS\CRISTIAN\DESKTOP\UNITBV\CLOUD\HELLOMICROSERVICES\TEMA1 CLOUD\GENERATED\OPERATIONRESPONSE.GRPC.PB.CC
C:\USERS\CRISTIAN\DESKTOP\UNITBV\CLOUD\HELLOMICROSERVICES\TEMA1 CLOUD\EXAMPLEGRPC\DEBUG\GENERATED.PDB
^C:\USERS\CRISTIAN\DESKTOP\UNITBV\CLOUD\HELLOMICROSERVICES\TEMA1 CLOUD\GENERATED\OPERATIONRESPONSE.PB.CC
C:\USERS\CRISTIAN\DESKTOP\UNITBV\CLOUD\HELLOMICROSERVICES\TEMA1 CLOUD\EXAMPLEGRPC\DEBUG\GENERATED.PDB
